PWD /home/arad/Documents/school-stuff/school-notes/G11/Biology/unit1
INPUT /usr/share/texmf-dist/web2c/texmf.cnf
INPUT /home/arad/.emacs.d/.local/cache/org/persist/db/afcf99-2b8e-4acd-b713-af11026d7ce4-19a434181277d368156c5a39d9384d19.fmt
INPUT GeneticProcesses.tex
OUTPUT GeneticProcesses.log
INPUT /usr/share/texmf-dist/tex/latex/l3backend/l3backend-pdftex.def
INPUT /usr/share/texmf-dist/tex/latex/l3backend/l3backend-pdftex.def
INPUT /usr/share/texmf-dist/tex/latex/l3backend/l3backend-pdftex.def
INPUT /usr/share/texmf-dist/tex/latex/l3backend/l3backend-pdftex.def
INPUT /usr/share/texmf-dist/tex/latex/l3backend/l3backend-pdftex.def
INPUT /usr/share/texmf-dist/tex/latex/l3backend/l3backend-pdftex.def
INPUT /usr/share/texmf-dist/tex/latex/l3backend/l3backend-pdftex.def
INPUT /usr/share/texmf-dist/tex/latex/l3backend/l3backend-pdftex.def
INPUT /usr/share/texmf-dist/tex/latex/l3backend/l3backend-pdftex.def
INPUT /usr/share/texmf-dist/tex/latex/l3backend/l3backend-pdftex.def
INPUT /usr/share/texmf-dist/tex/latex/l3backend/l3backend-pdftex.def
INPUT ./GeneticProcesses.aux
INPUT GeneticProcesses.aux
INPUT GeneticProcesses.aux
OUTPUT GeneticProcesses.aux
INPUT /usr/share/texmf-dist/tex/latex/graphics/graphicx.sty
INPUT /usr/share/texmf-dist/tex/context/base/mkii/supp-pdf.mkii
INPUT /usr/share/texmf-dist/tex/context/base/mkii/supp-pdf.mkii
INPUT /usr/share/texmf-dist/tex/context/base/mkii/supp-pdf.mkii
INPUT /usr/share/texmf-dist/tex/context/base/mkii/supp-pdf.mkii
INPUT /usr/share/texmf-dist/tex/latex/epstopdf-pkg/epstopdf-base.sty
INPUT /usr/share/texmf-dist/tex/latex/epstopdf-pkg/epstopdf-base.sty
INPUT /usr/share/texmf-dist/tex/latex/epstopdf-pkg/epstopdf-base.sty
INPUT /usr/share/texmf-dist/tex/latex/epstopdf-pkg/epstopdf-base.sty
INPUT /usr/share/texmf-dist/tex/latex/epstopdf-pkg/epstopdf-base.sty
INPUT /usr/share/texmf-dist/tex/latex/epstopdf-pkg/epstopdf-base.sty
INPUT /usr/share/texmf-dist/tex/latex/epstopdf-pkg/epstopdf-base.sty
INPUT /usr/share/texmf-dist/tex/latex/epstopdf-pkg/epstopdf-base.sty
INPUT /usr/share/texmf-dist/tex/latex/epstopdf-pkg/epstopdf-base.sty
INPUT /usr/share/texmf-dist/tex/latex/epstopdf-pkg/epstopdf-base.sty
INPUT /usr/share/texmf-dist/tex/latex/epstopdf-pkg/epstopdf-base.sty
INPUT /usr/share/texmf-dist/tex/latex/latexconfig/epstopdf-sys.cfg
INPUT /usr/share/texmf-dist/tex/latex/latexconfig/epstopdf-sys.cfg
INPUT /usr/share/texmf-dist/tex/latex/latexconfig/epstopdf-sys.cfg
INPUT /usr/share/texmf-dist/tex/latex/latexconfig/epstopdf-sys.cfg
INPUT /usr/share/texmf-dist/tex/latex/hyperref/nameref.sty
INPUT /usr/share/texmf-dist/tex/latex/hyperref/nameref.sty
INPUT /usr/share/texmf-dist/tex/latex/hyperref/nameref.sty
INPUT /usr/share/texmf-dist/tex/latex/hyperref/nameref.sty
INPUT /usr/share/texmf-dist/tex/latex/hyperref/nameref.sty
INPUT /usr/share/texmf-dist/tex/latex/hyperref/nameref.sty
INPUT /usr/share/texmf-dist/tex/latex/hyperref/nameref.sty
INPUT /usr/share/texmf-dist/tex/latex/hyperref/nameref.sty
INPUT /usr/share/texmf-dist/tex/latex/hyperref/nameref.sty
INPUT /usr/share/texmf-dist/tex/latex/hyperref/nameref.sty
INPUT /usr/share/texmf-dist/tex/latex/hyperref/nameref.sty
INPUT /usr/share/texmf-dist/tex/latex/refcount/refcount.sty
INPUT /usr/share/texmf-dist/tex/latex/refcount/refcount.sty
INPUT /usr/share/texmf-dist/tex/latex/refcount/refcount.sty
INPUT /usr/share/texmf-dist/tex/latex/refcount/refcount.sty
INPUT /usr/share/texmf-dist/tex/latex/refcount/refcount.sty
INPUT /usr/share/texmf-dist/tex/latex/refcount/refcount.sty
INPUT /usr/share/texmf-dist/tex/latex/refcount/refcount.sty
INPUT /usr/share/texmf-dist/tex/latex/refcount/refcount.sty
INPUT /usr/share/texmf-dist/tex/latex/refcount/refcount.sty
INPUT /usr/share/texmf-dist/tex/latex/refcount/refcount.sty
INPUT /usr/share/texmf-dist/tex/latex/refcount/refcount.sty
INPUT /usr/share/texmf-dist/tex/generic/ltxcmds/ltxcmds.sty
INPUT /usr/share/texmf-dist/tex/generic/infwarerr/infwarerr.sty
INPUT /usr/share/texmf-dist/tex/generic/gettitlestring/gettitlestring.sty
INPUT /usr/share/texmf-dist/tex/generic/gettitlestring/gettitlestring.sty
INPUT /usr/share/texmf-dist/tex/generic/gettitlestring/gettitlestring.sty
INPUT /usr/share/texmf-dist/tex/generic/gettitlestring/gettitlestring.sty
INPUT /usr/share/texmf-dist/tex/generic/gettitlestring/gettitlestring.sty
INPUT /usr/share/texmf-dist/tex/generic/gettitlestring/gettitlestring.sty
INPUT /usr/share/texmf-dist/tex/generic/gettitlestring/gettitlestring.sty
INPUT /usr/share/texmf-dist/tex/generic/gettitlestring/gettitlestring.sty
INPUT /usr/share/texmf-dist/tex/generic/gettitlestring/gettitlestring.sty
INPUT /usr/share/texmf-dist/tex/generic/gettitlestring/gettitlestring.sty
INPUT /usr/share/texmf-dist/tex/generic/gettitlestring/gettitlestring.sty
INPUT /usr/share/texmf-dist/tex/latex/kvoptions/kvoptions.sty
INPUT /usr/share/texmf-dist/tex/generic/ltxcmds/ltxcmds.sty
OUTPUT GeneticProcesses.out
OUTPUT GeneticProcesses.pdf
INPUT /usr/share/texmf-dist/fonts/map/fontname/texfonts.map
INPUT /usr/share/texmf-dist/fonts/tfm/public/fourier/futr8t.tfm
INPUT /usr/share/texmf-dist/fonts/tfm/public/fourier/futr8t.tfm
INPUT /usr/share/texmf-dist/fonts/tfm/public/fourier/futr8t.tfm
INPUT /usr/share/texmf-dist/fonts/tfm/public/fourier/futr8t.tfm
INPUT /usr/share/texmf-dist/fonts/tfm/public/fourier/futmii.tfm
INPUT /usr/share/texmf-dist/fonts/tfm/public/fourier/futmii.tfm
INPUT /usr/share/texmf-dist/fonts/tfm/public/fourier/futmii.tfm
INPUT /usr/share/texmf-dist/fonts/tfm/public/fourier/futsy.tfm
INPUT /usr/share/texmf-dist/fonts/tfm/public/fourier/futsy.tfm
INPUT /usr/share/texmf-dist/fonts/tfm/public/fourier/futsy.tfm
INPUT /usr/share/texmf-dist/fonts/tfm/public/fourier/fourier-mex.tfm
INPUT /usr/share/texmf-dist/fonts/tfm/public/fourier/fourier-mex.tfm
INPUT /usr/share/texmf-dist/fonts/tfm/public/fourier/fourier-mex.tfm
INPUT /usr/share/texmf-dist/fonts/tfm/public/amsfonts/symbols/msam10.tfm
INPUT /usr/share/texmf-dist/fonts/tfm/public/amsfonts/symbols/msam10.tfm
INPUT /usr/share/texmf-dist/fonts/tfm/public/amsfonts/symbols/msam7.tfm
INPUT /usr/share/texmf-dist/fonts/tfm/public/amsfonts/symbols/msbm10.tfm
INPUT /usr/share/texmf-dist/fonts/tfm/public/amsfonts/symbols/msbm10.tfm
INPUT /usr/share/texmf-dist/fonts/tfm/public/amsfonts/symbols/msbm7.tfm
INPUT /usr/share/texmf-dist/fonts/tfm/public/fourier/futmi.tfm
INPUT /usr/share/texmf-dist/fonts/tfm/public/fourier/futmi.tfm
INPUT /usr/share/texmf-dist/fonts/tfm/public/fourier/futmi.tfm
INPUT /usr/share/texmf-dist/fonts/tfm/public/fourier/fourier-bb.tfm
INPUT /usr/share/texmf-dist/fonts/tfm/public/fourier/fourier-bb.tfm
INPUT /usr/share/texmf-dist/fonts/tfm/public/fourier/fourier-bb.tfm
INPUT /usr/share/texmf-dist/tex/latex/fourier/ts1futs.fd
INPUT /usr/share/texmf-dist/tex/latex/fourier/ts1futs.fd
INPUT /usr/share/texmf-dist/tex/latex/fourier/ts1futs.fd
INPUT /usr/share/texmf-dist/tex/latex/fourier/ts1futs.fd
INPUT /usr/share/texmf-dist/fonts/tfm/public/fourier/futr8c.tfm
INPUT /usr/share/texmf-dist/fonts/tfm/public/fourier/futr8c.tfm
INPUT /usr/share/texmf-dist/fonts/tfm/public/fourier/futr8c.tfm
INPUT /usr/share/texmf-dist/fonts/tfm/public/fourier/futr8t.tfm
INPUT /usr/share/texmf-dist/fonts/tfm/public/fourier/futb8t.tfm
INPUT /usr/share/texmf-dist/fonts/tfm/public/fourier/futr8c.tfm
INPUT /usr/share/texmf-dist/fonts/tfm/public/fourier/futb8t.tfm
INPUT /usr/share/texmf-dist/fonts/vf/public/fourier/futr8t.vf
INPUT /usr/share/texmf-dist/fonts/tfm/public/fourier/futr8r.tfm
INPUT /usr/share/texmf-dist/fonts/tfm/public/fourier/fourier-alt.tfm
INPUT /var/lib/texmf/fonts/map/pdftex/updmap/pdftex.map
INPUT /usr/share/texmf-dist/fonts/vf/public/fourier/futr8t.vf
INPUT /usr/share/texmf-dist/fonts/tfm/public/fourier/futr8r.tfm
INPUT /usr/share/texmf-dist/fonts/tfm/public/fourier/fourier-alt.tfm
INPUT /usr/share/texmf-dist/fonts/vf/public/fourier/futb8t.vf
INPUT /usr/share/texmf-dist/fonts/tfm/public/fourier/futb8r.tfm
INPUT /usr/share/texmf-dist/fonts/tfm/public/fourier/fourier-alt-bold.tfm
INPUT /usr/share/texmf-dist/fonts/vf/public/fourier/futr8c.vf
INPUT /usr/share/texmf-dist/fonts/tfm/public/fourier/futr8r.tfm
INPUT /usr/share/texmf-dist/fonts/tfm/public/fourier/fourier-orns.tfm
INPUT /usr/share/texmf-dist/fonts/tfm/public/fourier/fourier-alt.tfm
INPUT /usr/share/texmf-dist/fonts/vf/public/fourier/futr8t.vf
INPUT /usr/share/texmf-dist/fonts/vf/public/fourier/futb8t.vf
INPUT /usr/share/texmf-dist/fonts/tfm/public/fourier/futb8r.tfm
INPUT /usr/share/texmf-dist/fonts/tfm/public/fourier/fourier-alt-bold.tfm
INPUT /usr/share/texmf-dist/fonts/vf/public/fourier/futb8t.vf
INPUT /usr/share/texmf-dist/fonts/tfm/public/fourier/futb8r.tfm
INPUT /usr/share/texmf-dist/fonts/tfm/public/fourier/fourier-alt-bold.tfm
INPUT /usr/share/texmf-dist/fonts/vf/public/fourier/futri8t.vf
INPUT /usr/share/texmf-dist/fonts/tfm/public/fourier/futri8r.tfm
INPUT /usr/share/texmf-dist/fonts/tfm/public/fourier/fourier-alt-ita.tfm
INPUT /home/arad/.emacs.d/.local/cache/org/persist/28/62eae7-f385-4cae-9cfb-60eccecd11cc-f5caaed549c6c94d61bde8d1d5711491.jpg
INPUT /home/arad/.emacs.d/.local/cache/org/persist/28/62eae7-f385-4cae-9cfb-60eccecd11cc-f5caaed549c6c94d61bde8d1d5711491.jpg
INPUT /home/arad/.emacs.d/.local/cache/org/persist/28/62eae7-f385-4cae-9cfb-60eccecd11cc-f5caaed549c6c94d61bde8d1d5711491.jpg
INPUT /home/arad/.emacs.d/.local/cache/org/persist/28/62eae7-f385-4cae-9cfb-60eccecd11cc-f5caaed549c6c94d61bde8d1d5711491.jpg
INPUT /home/arad/.emacs.d/.local/cache/org/persist/28/62eae7-f385-4cae-9cfb-60eccecd11cc-f5caaed549c6c94d61bde8d1d5711491.jpg
