\relax 
\providecommand\hyper@newdestlabel[2]{}
\providecommand\HyperFirstAtBeginDocument{\AtBeginDocument}
\HyperFirstAtBeginDocument{\ifx\hyper@anchor\@undefined
\global\let\oldcontentsline\contentsline
\gdef\contentsline#1#2#3#4{\oldcontentsline{#1}{#2}{#3}}
\global\let\oldnewlabel\newlabel
\gdef\newlabel#1#2{\newlabelxx{#1}#2}
\gdef\newlabelxx#1#2#3#4#5#6{\oldnewlabel{#1}{{#2}{#3}}}
\AtEndDocument{\ifx\hyper@anchor\@undefined
\let\contentsline\oldcontentsline
\let\newlabel\oldnewlabel
\fi}
\fi}
\global\let\hyper@last\relax 
\gdef\HyperFirstAtBeginDocument#1{#1}
\providecommand\HyField@AuxAddToFields[1]{}
\providecommand\HyField@AuxAddToCoFields[2]{}
\newlabel{sec:org9023b09}{{}{1}{Cell Parts}{section*.1}{}}
\newlabel{sec:org23024c5}{{}{1}{Cell Membrane}{section*.2}{}}
\newlabel{sec:orgd9f23f0}{{}{2}{Nucleus}{section*.3}{}}
\newlabel{sec:org991fb5b}{{}{2}{Nucleolus}{section*.4}{}}
\newlabel{sec:org800bef8}{{}{2}{Ribosomes}{section*.5}{}}
\newlabel{sec:org8c95729}{{}{2}{Rough Endoplasmic Reticulum}{section*.6}{}}
\newlabel{sec:org7da69ee}{{}{2}{Smooth Endoplasmic Reticulum}{section*.7}{}}
\newlabel{sec:orgb06b573}{{}{3}{Transport Vesicles}{section*.8}{}}
\newlabel{sec:org5f3972e}{{}{3}{Golgi Apparatus}{section*.9}{}}
\newlabel{sec:org63d6f45}{{}{3}{Secretory Vesicles}{section*.10}{}}
\newlabel{sec:orgb9181ea}{{}{3}{Lysosomes}{section*.11}{}}
\newlabel{sec:orgdeb6532}{{}{3}{Cytoskeleton}{section*.12}{}}
\newlabel{sec:org86bb8ec}{{}{3}{Mitochondria}{section*.13}{}}
\newlabel{sec:org77d7f2d}{{}{3}{Animal Cells only}{section*.14}{}}
\newlabel{sec:org387ac53}{{}{3}{Centrioles}{section*.15}{}}
\newlabel{sec:org8691a4a}{{}{4}{Small Vacuole}{section*.16}{}}
\newlabel{sec:org8f28ad2}{{}{4}{Plant Cells only}{section*.17}{}}
\newlabel{sec:orgab958b9}{{}{4}{Centrosomes}{section*.18}{}}
\newlabel{sec:org5a23524}{{}{4}{Cell Wall}{section*.19}{}}
\newlabel{sec:org01191c6}{{}{4}{Large Vacuole}{section*.20}{}}
\newlabel{sec:orge06bde0}{{}{4}{Chloroplasts}{section*.21}{}}
\newlabel{sec:org79b8c4f}{{}{5}{Cell Cycle (Animal Somatic Cells)}{section*.22}{}}
\newlabel{sec:orgf749ab5}{{}{5}{Interphase}{section*.23}{}}
\newlabel{sec:org9a41855}{{}{5}{G1}{section*.24}{}}
\newlabel{sec:org0487bd5}{{}{5}{Synthesis}{section*.25}{}}
\newlabel{sec:org84c1f3e}{{}{5}{G0}{section*.26}{}}
\newlabel{sec:org8cfd05a}{{}{5}{G2}{section*.27}{}}
\newlabel{sec:orgcdbfbd5}{{}{5}{Mitosis}{section*.28}{}}
\newlabel{sec:orgd621310}{{}{5}{Prophase}{section*.29}{}}
\newlabel{sec:org7fbd710}{{}{5}{Prophase}{section*.29}{}}
\newlabel{sec:org3a3a85c}{{}{5}{Prophase}{section*.29}{}}
\newlabel{sec:org2d4b1ad}{{}{5}{Metaphase}{section*.30}{}}
\newlabel{sec:org0cea951}{{}{6}{Anaphase}{section*.31}{}}
\newlabel{sec:org5980625}{{}{6}{Telophase}{section*.32}{}}
\newlabel{sec:org32a279e}{{}{6}{Cytokenesis}{section*.33}{}}
\newlabel{sec:org45a4e19}{{}{6}{Intro to DNA}{section*.34}{}}
\newlabel{sec:orgc54c349}{{}{6}{What is DNA?}{section*.35}{}}
